Travel delayed is travel denied: An empirical study of flight delays and models that seek to predict their occurrence
…
VX
Virgin America

WN
Southwest Airlines Co.

YV
Mesa Airlines Inc.

For categorical independent variables, the below table, cat_facts, shows associated departure delay. If desired, it could also be used for manual back-transformation

cat_facts %>% mutate(facts = round(facts,4))

## # A tibble: 203 x 3
##    cat     obj     facts
##    <chr>   <chr>   <dbl>
##  1 carrier WN     0.152 
##  2 carrier FL     0.128 
##  3 carrier F9     0.109 
##  4 carrier UA     0.0792
##  5 carrier EV     0.0596
##  6 carrier VX     0.0427
##  7 carrier YV     0.0366
##  8 carrier 9E     0.0146
##  9 carrier B6     0.005 
## 10 carrier MQ    -0.0718
## # ... with 193 more rows
…
